<?xml version="1.0" encoding="utf-8"?>
<!-- Generator: Adobe Illustrator 22.0.0, SVG Export Plug-In . SVG Version: 6.00 Build 0)  -->
<svg version="1.1" id="Layer_1" xmlns="http://www.w3.org/2000/svg" xmlns:xlink="http://www.w3.org/1999/xlink" x="0px" y="0px"
	 viewBox="0 0 512 512" style="enable-background:new 0 0 512 512;" xml:space="preserve">
<style type="text/css">
	.st0{fill:#727275;}
	.st1{fill:#9DC498;}
	.st2{fill:#ED1C24;}
</style>
<g>
	<g>
		<path class="st0" d="M363.2,72C331.7,26.9,280.5,0,225.3,0C133.1,0,58,74.7,57.4,166.8L14.7,311.9l42.7,0v50.8
			c0,33.8,27.5,61.3,61.3,61.3h90.8V512h183.8V383.9h104.1V72H363.2z M377.6,496.3H225.1v-88.1H118.6c-25.1,0-45.6-20.5-45.6-45.6
			v-66.5l-37.4,0L73,169.1v-1.1c0-84,68.3-152.3,152.3-152.3c46.3,0,89.5,20.8,118.3,56.4h-86.1v311.9h120.1V496.3z M481.6,368.2
			H273.2V87.7h208.5V368.2z"/>
	</g>
</g>
<g>
	<g>
		<polygon class="st1" points="359.8,102.4 321.4,140.8 302.9,122.4 291.8,133.5 321.4,163 370.9,113.5 		"/>
	</g>
</g>
<g>
	<g>
		<rect x="378.6" y="128.6" class="st1" width="79.5" height="15.7"/>
	</g>
</g>
<g>
	<g>
		<rect x="378.6" y="153.7" class="st1" width="47" height="15.7"/>
	</g>
</g>
<g>
	<g>
		<polygon class="st1" points="359.8,182.4 321.4,220.9 302.9,202.4 291.8,213.5 321.4,243.1 370.9,193.5 		"/>
	</g>
</g>
<g>
	<g>
		<rect x="378.6" y="210.2" class="st1" width="79.5" height="15.7"/>
	</g>
</g>
<g>
	<g>
		<rect x="378.6" y="233.2" class="st1" width="47" height="15.7"/>
	</g>
</g>
<g>
	<g>
		<polygon class="st2" points="359.8,262.5 321.4,300.9 302.9,282.5 291.8,293.6 321.4,323.1 370.9,273.6 		"/>
	</g>
</g>
<g>
	<g>
		<rect x="378.6" y="288.6" class="st2" width="79.5" height="15.7"/>
	</g>
</g>
<g>
	<g>
		<rect x="378.6" y="312.6" class="st2" width="47" height="15.7"/>
	</g>
</g>
</svg>
