<?xml version="1.0" encoding="utf-8"?>
<!-- Generator: Adobe Illustrator 22.0.0, SVG Export Plug-In . SVG Version: 6.00 Build 0)  -->
<svg version="1.1" id="Capa_1" xmlns="http://www.w3.org/2000/svg" xmlns:xlink="http://www.w3.org/1999/xlink" x="0px" y="0px"
	 viewBox="0 0 496 496" style="enable-background:new 0 0 496 496;" xml:space="preserve">
<style type="text/css">
	.st0{fill:#ED1C24;}
	.st1{fill:#727275;}
	.st2{fill:#9DC498;}
</style>
<g>
	<g>
		<path class="st0" d="M248,168c-35.3,0-64,28.7-64,64s28.7,64,64,64s64-28.7,64-64S283.3,168,248,168z M248,280
			c-26.5,0-48-21.5-48-48s21.5-48,48-48s48,21.5,48,48S274.5,280,248,280z"/>
	</g>
</g>
<g>
	<g>
		<path class="st1" d="M440,352v-56h-91.7l-3.7-7.5c3.1-5.3,5.7-10.8,7.9-16.5H384c48.5,0,88-39.5,88-88c0-43.1-30.6-79.1-72.2-86.6
			C396.4,43.1,351.1,0,296,0c-35.2,0-67.9,17.9-87.1,47.1C198.6,42.5,187.3,40,176,40c-41.5,0-75.8,31.8-79.6,72.4
			C55.8,116.2,24,150.5,24,192c0,44.1,35.9,80,80,80h39.5c2.2,5.7,4.8,11.2,7.9,16.5l-3.7,7.5H72v72H0v128h160V368H88v-56h59
			l25.9,25.9l18.6-9.3c8.9,5.2,18.3,9.1,28.2,11.7l6.6,19.7h43.5l6.6-19.7c9.9-2.6,19.3-6.5,28.2-11.7l18.6,9.3L349,312h75v40h-56
			v144h128V352H440z M16,395.3l43.8,43.8L16,472V395.3z M32,480l39.2-29.4l8.8,8.8l8.8-8.8L128,480H32z M144,472l-43.8-32.9
			l43.8-43.8V472z M132.7,384L80,436.7L27.3,384H132.7z M104,256c-35.3,0-64-28.7-64-64s28.7-64,64-64h8v-8c0-35.3,28.7-64,64-64
			c11.2,0,22.2,3,31.9,8.6l7.1,4.1l3.9-7.1C234.4,33.4,264,16,296,16c48.5,0,88,39.5,88,87.6l0,8l7.2,0.7
			c37,3.7,64.8,34.5,64.8,71.6c0,39.7-32.3,72-72,72h-14.7l6.7-2.2v-43.5l-19.7-6.6c-2.6-9.9-6.5-19.3-11.7-28.2l9.3-18.6
			l-30.8-30.8l-18.6,9.3c-8.9-5.2-18.3-9.1-28.2-11.7l-6.6-19.7h-43.5l-6.6,19.7c-9.9,2.6-19.3,6.5-28.2,11.7l-18.6-9.3l-30.8,30.8
			l9.3,18.6c-5.2,8.9-9.1,18.3-11.7,28.2l-19.7,6.6v43.5l6.7,2.2H104z M341.8,252.4c-2.4,11.1-6.8,21.7-13,31.4l-2.5,3.8l8.2,16.3
			L320,318.4l-16.3-8.2l-3.8,2.5c-9.7,6.2-20.2,10.6-31.4,13l-4.4,1l-5.8,17.3h-20.5l-5.8-17.3l-4.4-1c-11.1-2.4-21.7-6.8-31.4-13
			l-3.8-2.5l-16.3,8.2L161.6,304l8.2-16.3l-2.5-3.8c-6.2-9.7-10.6-20.2-13-31.4l-1-4.4l-17.3-5.8v-20.5l17.3-5.8l1-4.4
			c2.4-11.1,6.8-21.7,13-31.4l2.5-3.8l-8.2-16.3l14.5-14.5l16.3,8.2l3.8-2.5c9.7-6.2,20.2-10.6,31.4-13l4.4-1l5.8-17.3h20.5
			l5.8,17.3l4.4,1c11.1,2.4,21.7,6.8,31.4,13l3.8,2.5l16.3-8.2l14.5,14.5l-8.2,16.3l2.5,3.8c6.2,9.7,10.6,20.2,13,31.4l1,4.4
			l17.3,5.8v20.5l-17.3,5.8L341.8,252.4z M480,480h-96V368h96V480z"/>
	</g>
</g>
<g>
	<g>
		<rect x="400" y="384" class="st2" width="64" height="16"/>
	</g>
</g>
<g>
	<g>
		<rect x="400" y="416" class="st2" width="64" height="16"/>
	</g>
</g>
<g>
	<g>
		<rect x="448" y="448" class="st2" width="16" height="16"/>
	</g>
</g>
<g>
	<g>
		<rect x="400" y="448" class="st2" width="32" height="16"/>
	</g>
</g>
<g>
	<g>
		<path class="st2" d="M296,32v16c28.2,0,52.1,21.1,55.6,49l15.9-2C363,59.1,332.2,32,296,32z"/>
	</g>
</g>
<g>
	<g>
		<path class="st2" d="M72,192H56c0,26.5,21.5,48,48,48v-16C86.4,224,72,209.6,72,192z"/>
	</g>
</g>
</svg>
